Commodity,Citigroup,CITI01,US Commodity,4567,USD,11251118.55,1248366.73,1073751.64,323253.64,,				
Credit,JP Morgan,JPM02,Prop trading,3456,EUR,685862.81,-685459.48,512505.69,323253.64,,				
Equity,JP Morgan,JPM02,Prop trading,2345,USD,984007.93,982784.74,808002.27,323253.64,,				
Rates And FX,JP Morgan,JPM01,FX Forward,1234,EUR,500253.11,500167.97,323253.64,323253.64,,		
Total:,,,,11602.00,0.00,13421242.40,,,,,